{
    "message": "Successfully get employee informal education data",
    "data": {
        "informal_education": [
            {
                "id": 55472,
                "user_id": 571919,
                "company_id": 3620,
                "held_by_institution_name": "company tedt",
                "name": "Testing fasttrack TDA Production 1",
                "duration": 30,
                "duration_type": 1,
                "fee": "1000",
                "certification": false,
                "start_date": "2021-11-01",
                "end_date": "2021-11-30",
                "reference_id": 27,
                "filename": "",
                "description": "test api",
                "create_date": "2022-02-23 15:43:34",
                "update_date": "2022-02-23 15:43:34"
            },
            {
                "id": 55469,
                "user_id": 571919,
                "company_id": 3620,
                "held_by_institution_name": "company tedt",
                "name": "Testing fasttrack TDA Production",
                "duration": 1,
                "duration_type": 1,
                "fee": "1000",
                "certification": false,
                "start_date": "2021-11-30",
                "end_date": "2021-11-30",
                "reference_id": 24,
                "filename": "",
                "description": "test api",
                "create_date": "2022-02-23 12:57:58",
                "update_date": "2022-02-23 12:57:58"
            },
            {
                "id": 55470,
                "user_id": 571919,
                "company_id": 3620,
                "held_by_institution_name": "",
                "name": "Testing fasttrack TDA Production",
                "duration": 1,
                "duration_type": 1,
                "fee": "1000",
                "certification": false,
                "start_date": "2021-11-30",
                "end_date": "2021-11-30",
                "reference_id": 25,
                "filename": "",
                "description": "test api",
                "create_date": "2022-02-23 12:58:12",
                "update_date": "2022-02-23 12:58:12"
            },
            {
                "id": 55471,
                "user_id": 571919,
                "company_id": 3620,
                "held_by_institution_name": "company tedt",
                "name": "Testing fasttrack TDA Production",
                "duration": 1,
                "duration_type": 1,
                "fee": "1000",
                "certification": false,
                "start_date": "2021-11-30",
                "end_date": "2021-11-30",
                "reference_id": 26,
                "filename": "",
                "description": "test api",
                "create_date": "2022-02-23 12:58:26",
                "update_date": "2022-02-23 12:58:26"
            },
            {
                "id": 55473,
                "user_id": 571919,
                "company_id": 3620,
                "held_by_institution_name": "company test",
                "name": "Belajar 123",
                "duration": 1,
                "duration_type": 1,
                "fee": "1000",
                "certification": false,
                "start_date": "2021-11-30",
                "end_date": "2021-11-30",
                "reference_id": 28,
                "filename": "",
                "description": "test api",
                "create_date": "2022-02-23 15:50:48",
                "update_date": "2022-02-23 15:52:36"
            },
            {
                "id": 54817,
                "user_id": 571919,
                "company_id": 3620,
                "held_by_institution_name": "Lembaga Dolor.",
                "name": "Course Temporibus.",
                "duration": 8,
                "duration_type": 2,
                "fee": "271995",
                "certification": true,
                "start_date": "2021-12-27",
                "end_date": "2022-01-26",
                "reference_id": 1,
                "filename": "https://talenta.s3.ap-southeast-1.amazonaws.com/myinfo/training/TiRoNWsC8FWhnMbbOhuBp3XrSwCVjvGB.png?X-Amz-Content-Sha256=UNSIGNED-PAYLOAD&X-Amz-Security-Token=FwoGZXIvYXdzEE0aDB59OsFCXgqlKjmD%2FSLCAdOarZrzkV7b3c%2FUJIcmCa2Ik5TUoriwHcWe6fk%2BHKU2voF0%2FZjHH98ej5c%2BV1Lq84XCJcBcKjBFsatmb7BvOFY73ULcAHIuFgF6YshWXunPjDloBhbXi5P%2BYxEmDgnI0uncPRg8K2LzFnY8d%2BF5dlc%2FCF7u4PN8biDthspLWyE%2FgZJb%2BrtAVQXLu3ELhfg5bwrQ1p7OZW2oK%2F3XrgqQiDyiLx9kgo1Eje2qTSJNuD51sVbn9G6R%2BZJW%2BPUsoJDz2NxmKIfzz5EGMi3QL49daT9BDFGm0mbQcKjZVtBkn20HWC2RD9jfNvF2w%2F%2FdWfB8AnjkXtJDgjM%3D&X-Amz-Algorithm=AWS4-HMAC-SHA256&X-Amz-Credential=ASIA3A7QLOC3EILLDJMT%2F20220318%2Fap-southeast-1%2Fs3%2Faws4_request&X-Amz-Date=20220318T031855Z&X-Amz-SignedHeaders=host&X-Amz-Expires=1800&X-Amz-Signature=ea76dd39c69af0a662f107d8fc2ccb1f36113aeca59b51e9c0081fa11cd7be21",
                "description": "when i find myself in time of trouble, mother mary comes to me, speaking word of wisdom, let it be.",
                "create_date": "2022-01-27 14:12:38",
                "update_date": "2022-01-27 14:12:38"
            },
            {
                "id": 54818,
                "user_id": 571919,
                "company_id": 3620,
                "held_by_institution_name": "Lembaga Quod.",
                "name": "Course Nostrum.",
                "duration": 23,
                "duration_type": 2,
                "fee": "412850",
                "certification": true,
                "start_date": "2021-12-27",
                "end_date": "2022-01-26",
                "reference_id": 2,
                "filename": "https://talenta.s3.ap-southeast-1.amazonaws.com/myinfo/training/FSJiCAGeHJiXjgmGGIsyGyDEy-WM7085.png?X-Amz-Content-Sha256=UNSIGNED-PAYLOAD&X-Amz-Security-Token=FwoGZXIvYXdzEE0aDB59OsFCXgqlKjmD%2FSLCAdOarZrzkV7b3c%2FUJIcmCa2Ik5TUoriwHcWe6fk%2BHKU2voF0%2FZjHH98ej5c%2BV1Lq84XCJcBcKjBFsatmb7BvOFY73ULcAHIuFgF6YshWXunPjDloBhbXi5P%2BYxEmDgnI0uncPRg8K2LzFnY8d%2BF5dlc%2FCF7u4PN8biDthspLWyE%2FgZJb%2BrtAVQXLu3ELhfg5bwrQ1p7OZW2oK%2F3XrgqQiDyiLx9kgo1Eje2qTSJNuD51sVbn9G6R%2BZJW%2BPUsoJDz2NxmKIfzz5EGMi3QL49daT9BDFGm0mbQcKjZVtBkn20HWC2RD9jfNvF2w%2F%2FdWfB8AnjkXtJDgjM%3D&X-Amz-Algorithm=AWS4-HMAC-SHA256&X-Amz-Credential=ASIA3A7QLOC3EILLDJMT%2F20220318%2Fap-southeast-1%2Fs3%2Faws4_request&X-Amz-Date=20220318T031855Z&X-Amz-SignedHeaders=host&X-Amz-Expires=1800&X-Amz-Signature=99b66645348a4d6db6d9e030cf54d6ea492e07783fcf18e45ff79e4acf869bdf",
                "description": "",
                "create_date": "2022-01-27 14:16:48",
                "update_date": "2022-01-27 14:16:48"
            },
            {
                "id": 54888,
                "user_id": 571919,
                "company_id": 3620,
                "held_by_institution_name": "Lembaga Et.",
                "name": "Course Fuga.",
                "duration": 31,
                "duration_type": 1,
                "fee": "734388",
                "certification": true,
                "start_date": "2022-01-03",
                "end_date": "2022-02-02",
                "reference_id": 3,
                "filename": "https://talenta.s3.ap-southeast-1.amazonaws.com/myinfo/training/SrUs49goErF3W09dUOcUffzJh-6O8dee.png?X-Amz-Content-Sha256=UNSIGNED-PAYLOAD&X-Amz-Security-Token=FwoGZXIvYXdzEE0aDB59OsFCXgqlKjmD%2FSLCAdOarZrzkV7b3c%2FUJIcmCa2Ik5TUoriwHcWe6fk%2BHKU2voF0%2FZjHH98ej5c%2BV1Lq84XCJcBcKjBFsatmb7BvOFY73ULcAHIuFgF6YshWXunPjDloBhbXi5P%2BYxEmDgnI0uncPRg8K2LzFnY8d%2BF5dlc%2FCF7u4PN8biDthspLWyE%2FgZJb%2BrtAVQXLu3ELhfg5bwrQ1p7OZW2oK%2F3XrgqQiDyiLx9kgo1Eje2qTSJNuD51sVbn9G6R%2BZJW%2BPUsoJDz2NxmKIfzz5EGMi3QL49daT9BDFGm0mbQcKjZVtBkn20HWC2RD9jfNvF2w%2F%2FdWfB8AnjkXtJDgjM%3D&X-Amz-Algorithm=AWS4-HMAC-SHA256&X-Amz-Credential=ASIA3A7QLOC3EILLDJMT%2F20220318%2Fap-southeast-1%2Fs3%2Faws4_request&X-Amz-Date=20220318T031855Z&X-Amz-SignedHeaders=host&X-Amz-Expires=1800&X-Amz-Signature=0e2af864176f8e6f17d6f3d43819e9ec73a7dcf61b35e5e0c6970868e4c35a15",
                "description": "",
                "create_date": "2022-02-03 19:09:49",
                "update_date": "2022-02-03 19:09:49"
            },
            {
                "id": 54889,
                "user_id": 571919,
                "company_id": 3620,
                "held_by_institution_name": "Lembaga Ex.",
                "name": "Course Odio.",
                "duration": 31,
                "duration_type": 1,
                "fee": "350687",
                "certification": true,
                "start_date": "2022-01-03",
                "end_date": "2022-02-02",
                "reference_id": 4,
                "filename": "https://talenta.s3.ap-southeast-1.amazonaws.com/myinfo/training/7naLguVJqoXc1cpnRjSDPULq4u2pPhwu.png?X-Amz-Content-Sha256=UNSIGNED-PAYLOAD&X-Amz-Security-Token=FwoGZXIvYXdzEE0aDB59OsFCXgqlKjmD%2FSLCAdOarZrzkV7b3c%2FUJIcmCa2Ik5TUoriwHcWe6fk%2BHKU2voF0%2FZjHH98ej5c%2BV1Lq84XCJcBcKjBFsatmb7BvOFY73ULcAHIuFgF6YshWXunPjDloBhbXi5P%2BYxEmDgnI0uncPRg8K2LzFnY8d%2BF5dlc%2FCF7u4PN8biDthspLWyE%2FgZJb%2BrtAVQXLu3ELhfg5bwrQ1p7OZW2oK%2F3XrgqQiDyiLx9kgo1Eje2qTSJNuD51sVbn9G6R%2BZJW%2BPUsoJDz2NxmKIfzz5EGMi3QL49daT9BDFGm0mbQcKjZVtBkn20HWC2RD9jfNvF2w%2F%2FdWfB8AnjkXtJDgjM%3D&X-Amz-Algorithm=AWS4-HMAC-SHA256&X-Amz-Credential=ASIA3A7QLOC3EILLDJMT%2F20220318%2Fap-southeast-1%2Fs3%2Faws4_request&X-Amz-Date=20220318T031855Z&X-Amz-SignedHeaders=host&X-Amz-Expires=1800&X-Amz-Signature=aa7d76a448c0c24825861b6d5ef9509ea4fd8786ee9cc5e06b78ac4caf75914d",
                "description": "when i find myself in time of trouble, mother mary comes to me, speaking word of wisdom, let it be.",
                "create_date": "2022-02-03 21:52:50",
                "update_date": "2022-02-03 21:52:50"
            },
            {
                "id": 54910,
                "user_id": 571919,
                "company_id": 3620,
                "held_by_institution_name": "Lembaga Odit.",
                "name": "Course Consequatur.",
                "duration": 31,
                "duration_type": 1,
                "fee": "615688",
                "certification": true,
                "start_date": "2022-01-04",
                "end_date": "2022-02-03",
                "reference_id": 5,
                "filename": "https://talenta.s3.ap-southeast-1.amazonaws.com/myinfo/training/y-7FvBBnzMSCXcjfvSh5gfaI9tT7ejD7.png?X-Amz-Content-Sha256=UNSIGNED-PAYLOAD&X-Amz-Security-Token=FwoGZXIvYXdzEE0aDB59OsFCXgqlKjmD%2FSLCAdOarZrzkV7b3c%2FUJIcmCa2Ik5TUoriwHcWe6fk%2BHKU2voF0%2FZjHH98ej5c%2BV1Lq84XCJcBcKjBFsatmb7BvOFY73ULcAHIuFgF6YshWXunPjDloBhbXi5P%2BYxEmDgnI0uncPRg8K2LzFnY8d%2BF5dlc%2FCF7u4PN8biDthspLWyE%2FgZJb%2BrtAVQXLu3ELhfg5bwrQ1p7OZW2oK%2F3XrgqQiDyiLx9kgo1Eje2qTSJNuD51sVbn9G6R%2BZJW%2BPUsoJDz2NxmKIfzz5EGMi3QL49daT9BDFGm0mbQcKjZVtBkn20HWC2RD9jfNvF2w%2F%2FdWfB8AnjkXtJDgjM%3D&X-Amz-Algorithm=AWS4-HMAC-SHA256&X-Amz-Credential=ASIA3A7QLOC3EILLDJMT%2F20220318%2Fap-southeast-1%2Fs3%2Faws4_request&X-Amz-Date=20220318T031855Z&X-Amz-SignedHeaders=host&X-Amz-Expires=1800&X-Amz-Signature=ae1511b5ab2e57451cce9b819aac32f69c1ba1c1c7fea40d9501d8eb6f12d0e4",
                "description": "when i find myself in time of trouble, mother mary comes to me, speaking word of wisdom, let it be.",
                "create_date": "2022-02-04 15:08:13",
                "update_date": "2022-02-04 15:08:13"
            }
        ],
        "pagination": {
            "current_page": 1,
            "first_page_url": "https://data-api.talenta.co/v2/employee/informal-education/571919/list?limit=10&page=1",
            "from": 1,
            "last_page": 10,
            "last_page_url": "https://data-api.talenta.co/v2/employee/informal-education/571919/list?limit=10&page=10",
            "next_page_url": "https://data-api.talenta.co/v2/employee/informal-education/571919/list?limit=10&page=2",
            "path": "https://data-api.talenta.co/v2/employee/informal-education/571919/list?limit=10&page=1",
            "per_page": 10,
            "prev_page_url": "",
            "to": 10,
            "total": 91
        }
    }
}
