{
    "message": "get bank list data successfully",
    "data": {
        "bank_list": [
            {
                "id": 1,
                "code": "bca",
                "name": "BCA"
            },
            {
                "id": 2,
                "code": "mandiri",
                "name": "Mandiri"
            },
            {
                "id": 3,
                "code": "bri",
                "name": "BRI"
            },
            {
                "id": 4,
                "code": "cimb",
                "name": "CIMB"
            },
            {
                "id": 5,
                "code": "commonwealth",
                "name": "Commonwealth"
            },
            {
                "id": 6,
                "code": "bni",
                "name": "BNI"
            },
            {
                "id": 7,
                "code": "danamon",
                "name": "Danamon"
            },
            {
                "id": 8,
                "code": "panin",
                "name": "Panin"
            },
            {
                "id": 9,
                "code": "permata",
                "name": "Bank Permata"
            },
            {
                "id": 10,
                "code": "maybank",
                "name": "BII-Maybank"
            }
        ],
        "total": 104,
        "pagination": {
            "current_page": 1,
            "first_page_url": "https://data-api.talenta.co/v1/v2/company/3620/bank-list?limit=10&page=1",
            "from": 1,
            "last_page": 11,
            "last_page_url": "https://data-api.talenta.co/v1/v2/company/3620/bank-list?limit=10&page=11",
            "next_page_url": "https://data-api.talenta.co/v1/v2/company/3620/bank-list?limit=10&page=2",
            "path": "https://data-api.talenta.co/v1/v2/company/3620/bank-list",
            "per_page": 10,
            "to": 10,
            "total": 104
        }
    }
}
